%YAML 1.1
%TAG !u! tag:unity3d.com,2011:
--- !u!78 &1
TagManager:
  serializedVersion: 2
  tags:
  - ground
  - Stickeable
  - Tacto
  - Mouth
  - EnemigoInvisible
  - Light
  - GameMusic
  - Kill
  layers:
  - Default
  - TransparentFX
  - Ignore Raycast
  - Floor
  - Water
  - UI
  - FloorTacto
  - 
  - 
  - 
  - 
  - 
  - 
  - 
  - 
  - 
  - 
  - 
  - 
  - 
  - 
  - 
  - 
  - 
  - 
  - 
  - 
  - 
  - 
  - 
  - 
  - 
  m_SortingLayers:
  - name: Default
    uniqueID: 0
    locked: 0
  - name: 1
    uniqueID: 2885143481
    locked: 0
  - name: 2
    uniqueID: 862051875
    locked: 0
